// Jest Snapshot v1, https://goo.gl/fbAQLP

exports[`renders Card Component correctly 1`] = `
<View
  style={
    {
      "backgroundColor": "white",
      "borderColor": "#EBF0FF",
      "borderRadius": 10,
      "borderWidth": 1,
      "minHeight": 500,
      "padding": 32,
      "width": 330,
    }
  }
>
  <View
    style={
      {
        "backgroundColor": "grey",
        "borderRadius": 10,
        "height": 266,
        "marginBottom": 16,
        "width": 266,
      }
    }
  />
  <Text
    style={
      {
        "color": "#223263",
        "fontSize": 24,
        "fontWeight": "700",
      }
    }
  />
  <Text
    style={
      {
        "color": "#223263",
        "fontSize": 24,
        "fontWeight": "700",
      }
    }
  >
    Edition number: 
  </Text>
  <View
    style={
      {
        "marginTop": 8,
      }
    }
  />
  <View
    accessibilityState={
      {
        "busy": undefined,
        "checked": undefined,
        "disabled": undefined,
        "expanded": undefined,
        "selected": undefined,
      }
    }
    accessibilityValue={
      {
        "max": undefined,
        "min": undefined,
        "now": undefined,
        "text": undefined,
      }
    }
    accessible={true}
    collapsable={false}
    focusable={false}
    onClick={[Function]}
    onResponderGrant={[Function]}
    onResponderMove={[Function]}
    onResponderRelease={[Function]}
    onResponderTerminate={[Function]}
    onResponderTerminationRequest={[Function]}
    onStartShouldSetResponder={[Function]}
    style={
      {
        "backgroundColor": "#40BFFF",
        "borderRadius": 5,
        "bottom": 8,
        "opacity": 1,
        "position": "absolute",
        "right": 8,
      }
    }
    testID="loanBook"
  >
    <Text
      style={
        {
          "color": "white",
          "paddingHorizontal": 8,
          "paddingVertical": 4,
        }
      }
    >
      Loan
    </Text>
  </View>
</View>
`;
